RxODE Covariates
…
Now there is a covariate present, the system can be solved using the cov option

r1 <- solve(mod3, ev, covs_interpolation="linear")
print(r1)
#> ______________________________ Solved RxODE object _____________________________ 
#> -- Parameters ($params): ------------------------------------------------------- 
#>         KA         CL         V2          Q         V3       Kin0 
#>   0.294000  18.600000  40.200000  10.500000 297.000000   1.000000 
#>       Kout       EC50         Tz        amp         pi 
#>   1.000000 200.000000   8.000000   0.100000   3.141593 
#> -- Initial Conditions ($inits): ------------------------------------------------ 
#> eff 
#>   1 
#> -- First part of data (object): ------------------------------------------------ 
#> # A tibble: 100 x 4
#>        time    C2   Kin   eff
#>         [h] <dbl> <dbl> <dbl>
#> 1 0.0000000   0    1.1   1   
#> 2 0.4848485  27.8  1.10  1.07
#> 3 0.9696970  43.7  1.10  1.15
#> 4 1.4545455  51.8  1.09  1.22
#> 5 1.9393939  54.8  1.09  1.27
#> 6 2.4242424  54.6  1.08  1.30
#> # ... with 94 more rows
…
In RxODE, covariate interpolation can also be the last observation carried forward, or constant approximation. This is equivalent to R’s approxfun with method="constant".

r1 <- solve(mod3, ev,covs_interpolation="constant")
print(r1)
#> ______________________________ Solved RxODE object _____________________________ 
#> -- Parameters ($params): ------------------------------------------------------- 
#>         KA         CL         V2          Q         V3       Kin0 
#>   0.294000  18.600000  40.200000  10.500000 297.000000   1.000000 
#>       Kout       EC50         Tz        amp         pi 
#>   1.000000 200.000000   8.000000   0.100000   3.141593 
#> -- Initial Conditions ($inits): ------------------------------------------------ 
#> eff 
#>   1 
#> -- First part of data (object): ------------------------------------------------ 
#> # A tibble: 100 x 4
#>        time    C2   Kin   eff
#>         [h] <dbl> <dbl> <dbl>
#> 1 0.0000000   0    1.1   1   
#> 2 0.4848485  27.8  1.10  1.07
#> 3 0.9696970  43.7  1.10  1.15
#> 4 1.4545455  51.8  1.09  1.22
#> 5 1.9393939  54.8  1.09  1.27
#> 6 2.4242424  54.6  1.08  1.31
#> # ... with 94 more rows
…
You can also use NONMEM’s preferred interpolation style of next observation carried backward (NOCB):

r1 <- solve(mod3, ev,covs_interpolation="nocb")
print(r1)
#> ______________________________ Solved RxODE object _____________________________ 
#> -- Parameters ($params): ------------------------------------------------------- 
#>         KA         CL         V2          Q         V3       Kin0 
#>   0.294000  18.600000  40.200000  10.500000 297.000000   1.000000 
#>       Kout       EC50         Tz        amp         pi 
#>   1.000000 200.000000   8.000000   0.100000   3.141593 
#> -- Initial Conditions ($inits): ------------------------------------------------ 
#> eff 
#>   1 
#> -- First part of data (object): ------------------------------------------------ 
#> # A tibble: 100 x 4
#>        time    C2   Kin   eff
#>         [h] <dbl> <dbl> <dbl>
#> 1 0.0000000   0    1.1   1   
#> 2 0.4848485  27.8  1.10  1.07
#> 3 0.9696970  43.7  1.10  1.15
#> 4 1.4545455  51.8  1.09  1.21
#> 5 1.9393939  54.8  1.09  1.27
#> 6 2.4242424  54.6  1.08  1.30
#> # ... with 94 more rows
…
